<?xml version="1.0" encoding="utf-8"?>
<!-- Generator: Adobe Illustrator 15.1.0, SVG Export Plug-In . SVG Version: 6.00 Build 0)  -->
<!DOCTYPE svg PUBLIC "-//W3C//DTD SVG 1.1//EN" "http://www.w3.org/Graphics/SVG/1.1/DTD/svg11.dtd">
<svg version="1.1" id="Layer_1" xmlns="http://www.w3.org/2000/svg" xmlns:xlink="http://www.w3.org/1999/xlink" x="0px" y="0px"
	 width="100px" height="100px" viewBox="0 0 100 100" enable-background="new 0 0 100 100" xml:space="preserve">
<g id="g3159" transform="matrix(0.81249983,0,0,0.81249983,-226.06245,358.75002)">
	<path id="path3157" fill="#262626" d="M339.73-441.539c-33.965,0-61.499,27.534-61.499,61.499
		c0,33.965,27.534,61.499,61.499,61.499c33.965,0,61.499-27.535,61.499-61.499C401.23-414.004,373.695-441.539,339.73-441.539z"/>
	<path id="path37454" fill="#2c75ff" d="M335.306-363.768l-2.749-7.468c0,0-4.464,4.977-11.159,4.977
		c-5.928,0-10.131-5.15-10.131-13.395c0-10.561,5.321-14.338,10.56-14.338c7.555,0,9.959,4.897,12.02,11.162l2.749,8.585
		c2.745,8.331,7.897,15.024,22.751,15.024c10.649,0,17.861-3.261,17.861-11.843c0-6.96-3.951-10.565-11.333-12.28l-5.495-1.206
		c-3.779-0.857-4.893-2.402-4.893-4.98c0-2.915,2.317-4.633,6.091-4.633c4.124,0,6.357,1.543,6.7,5.236l8.588-1.032
		c-0.688-7.727-6.01-10.903-14.769-10.903c-7.725,0-15.282,2.919-15.282,12.277c0,5.842,2.834,9.533,9.96,11.252l5.839,1.371
		c4.38,1.031,5.84,2.835,5.84,5.325c0,3.179-3.091,4.463-8.93,4.463c-8.672,0-12.278-4.55-14.335-10.82l-2.837-8.585
		c-3.605-11.162-9.359-15.28-20.778-15.28c-12.623,0-19.318,7.985-19.318,21.549c0,13.053,6.695,20.091,18.716,20.091
		C330.671-359.218,335.306-363.768,335.306-363.768L335.306-363.768L335.306-363.768L335.306-363.768z"/>
</g>
</svg>
