<?xml version="1.0" encoding="utf-8"?>
<!-- Generator: Adobe Illustrator 15.1.0, SVG Export Plug-In . SVG Version: 6.00 Build 0)  -->
<!DOCTYPE svg PUBLIC "-//W3C//DTD SVG 1.1//EN" "http://www.w3.org/Graphics/SVG/1.1/DTD/svg11.dtd">
<svg version="1.1" id="Layer_1" xmlns="http://www.w3.org/2000/svg" xmlns:xlink="http://www.w3.org/1999/xlink" x="0px" y="0px"
	 width="100px" height="100px" viewBox="0 0 100 100" enable-background="new 0 0 100 100" xml:space="preserve">
<g id="g3238" transform="translate(0,70)">
	<path id="path3216" fill="#262626" d="M49.893-70C22.338-70,0-47.662,0-20.107s22.338,49.893,49.893,49.893
		S99.785,7.447,99.785-20.107S77.447-70,49.893-70z"/>
	<path id="path3898" fill="#2c75ff" d="M53.349-37.149l-0.188,0.131v1.179c0,0.146,0.06,0.268,0.188,0.356
		c0.125,0.094,0.271,0.15,0.41,0.15l0.543,0.056c1.396,0.058,2.037,0.425,2.229,0.656c0.333,0.406,0.508,0.841-0.3,2.603
		l-4.831,9.623l-4.363-8.931c-1.432-2.854-1.799-3.726,0.356-3.895l0.862-0.131c0.414,0,0.618-0.145,0.618-0.431v-1.235
		l-0.318-0.112c0,0-8.109-0.006-11.757,0L36.628-37v1.254c0,0.281,0.277,0.358,0.842,0.431c2.02,0.266,1.988,0.476,3.988,4.438
		c0.3,0.594,1.179,2.378,1.179,2.378l4.55,8.929c0,0,0.984,2.174,1.331,2.941L41.889-3.431l-0.375-0.111
		c0,0-10.264-21.631-13.236-28.87c-0.309-0.75-0.45-1.306-0.45-1.647c0-0.736,0.656-1.143,1.984-1.199l1.554-0.056
		c0.41,0,0.618-0.158,0.618-0.485V-37l-0.131-0.112c0,0-12.306-0.015-14.845,0L16.877-37v1.254c0,0.227,0.289,0.369,0.86,0.431
		c1.561,0.084,2.577,0.335,3.071,0.75c0.491,0.419,1.012,1.475,1.702,3.125c3.733,8.963,11.662,24.948,15.522,34.058
		c1.111,2.486,2.517,2.875,4.213-0.075c1.823-3.382,5.011-9.909,7.601-15.26l-0.56,2.903c-0.049,0.157,0.461,0.7,0.616,0.747
		l0.375-0.243c0.152,0.049,0.476-0.09,0.523-0.242l0.075-0.637l-0.504-2.341c2.417,5.324,5.328,11.724,6.947,15.054
		c1.257,2.596,2.7,2.845,4.156,0.075C65.274-5.853,76.376-31.29,76.376-31.29c0.481-1.248,1.161-2.204,2.021-2.901
		c0.858-0.693,2.182-1.081,3.969-1.162c0.366,0,0.544-0.163,0.544-0.485v-1.181l-0.131-0.131H69.131l-0.188,0.131v1.181
		c0,0.141,0.081,0.266,0.206,0.354c0.128,0.094,0.253,0.15,0.394,0.15l1.123,0.056c1.399,0.058,1.778,0.335,2.321,0.806
		c0.54,0.481,0.607,1.296,0.188,2.453L61.099-3.354l-0.468-0.131l-7.657-15.709c0.004-0.013,0.168-0.356,0.168-0.356l6.271-11.72
		c0.731-1.239,1.441-2.348,1.799-2.864c0.652-0.942,1.02-1.115,2.808-1.199c0.363,0,0.544-0.157,0.544-0.487v-1.197l-0.132-0.131
		C64.431-37.149,56.765-37.174,53.349-37.149L53.349-37.149z"/>
</g>
</svg>
